<?xml version="1.0" encoding="utf-8"?>
<!-- Generator: Adobe Illustrator 25.2.1, SVG Export Plug-In . SVG Version: 6.00 Build 0)  -->
<svg version="1.1" id="Layer_1" xmlns="http://www.w3.org/2000/svg" xmlns:xlink="http://www.w3.org/1999/xlink" x="0px" y="0px"
	 viewBox="0 0 144 144" style="enable-background:new 0 0 144 144;" xml:space="preserve">
<style type="text/css">
	.st0{fill:#FFFFFF;}
</style>
<g>
	<path class="st0" d="M23.5,116.8c32.3,0,64.7,0,97,0c0.7,0,1.4,0,2.3,0c-0.4-3.3-3-1.3-4.3-2.3c0-11.5,0-23,0-34.7
		c0.7,0,1.3-0.1,1.9-0.1c1.9,0.2,2.6-0.5,2.5-2.4c-0.1-2.5-0.1-5,0-7.5c0.1-1.6-0.5-2.1-2-2.1c-4.9,0.1-9.9,0-14.8,0
		c-0.7,0-1.4-0.1-2.1-0.1c0-3.9,0-7.6,0-11.5c0.8,0,1.3,0,1.8,0c2.6,0,2.6-0.1,2.6-2.7c0-2.8,0-5.6,0-8.5c0-3,0-3.1-3.1-3.1
		c-22.2,0-44.4,0-66.6,0c-0.4,0-0.8,0-1.2,0c-1.3,0-1.9,0.6-1.8,1.9c0.1,2.8,0,5.6,0,8.5c0,3.6,0,3.6,3.6,3.8c0.2,0,0.4,0.1,0.6,0.2
		c0,3.8,0,7.5,0,11.4c-5.4,0-10.7,0-16,0c-2.9,0-2.9,0-2.9,3c0,1.7,0,3.4,0,5.1c0,3.6,0,3.6,3.7,3.8c0.2,0,0.5,0.1,0.8,0.2
		c0,0,0,17.3,0,34.6c-1.3,1-3.9-1-4.3,2.3c0.9,0,1.6,0,2.3,0 M38,53.9c0-3.3,0-6.4,0-9.7c22.7,0,45.3,0,68,0c0,3.2,0,6.3,0,9.7
		C83.4,53.9,60.8,53.9,38,53.9z M23.4,77.3c0-2.4,0-4.8,0-7.3c5.5,0,11,0,16.6,0c0,2.4,0,4.7,0,7.3C34.5,77.3,29,77.3,23.4,77.3z
		 M40,114.4c-4,0-8,0-12,0c0-11.6,0-23,0-34.6c4,0,7.9,0,12,0C40,91.3,40,102.7,40,114.4z M81.9,114.4c-6.6,0-13,0-19.9,0
		c0.2-2.9-0.1-5.7,0.5-8.4c1.1-4.9,5.7-7.6,10.9-7c4.5,0.5,8.1,4.4,8.4,9.2C82.1,110.2,81.9,112.2,81.9,114.4z M101.6,114.4
		c-5.8,0-11.5,0-17.6,0c0-2.2,0.1-4.3,0-6.3c-0.4-7.2-7-12.4-14.1-11.2c-5.6,1-9.8,5.9-10,11.6c-0.1,1.9,0,3.8,0,5.9
		c-5.8,0-11.5,0-17.4,0c0-19.3,0-38.6,0-58c19.6,0,39.3,0,59,0C101.6,75.6,101.6,94.9,101.6,114.4z M104,70c5.5,0,11,0,16.7,0
		c0,2.5,0,4.8,0,7.3c-5.6,0-11.1,0-16.7,0C104,74.9,104,72.5,104,70z M113.8,114.6c-3.2-0.1-6.4,0-9.8,0c0-11.7,0-23.1,0-34.7
		c4.1,0,8,0,12.2,0c0,0.8,0,1.5,0,2.2c0,10-0.1,20.1,0,30.1C116.2,114.1,115.6,114.6,113.8,114.6z"/>
	<g>
		<path class="st0" d="M78.3,74.2c0-1.3-0.6-1.7-1.8-1.7c-3,0-6.1,0-9.1,0c-1.4,0-1.9,0.6-1.8,1.9c0.1,1.7,0.1,3.4,0,5.1
			c0,1.4,0.6,1.9,1.9,1.8c1.4,0,2.9,0,4.3,0c1.6,0,3.2,0,4.7,0c1.3,0,1.8-0.6,1.8-1.8C78.3,77.7,78.3,75.9,78.3,74.2z M75.9,79
			c-2.6,0-5.3,0-8.1,0c0-1.4,0-2.8,0-4.3c2.7,0,5.3,0,8.1,0C75.9,76.1,75.9,77.5,75.9,79z"/>
		<path class="st0" d="M60.9,74.1c0-1.3-0.6-1.7-1.8-1.7c-3,0-6.1,0-9.1,0c-1.4,0-1.9,0.6-1.8,1.9c0.1,1.7,0.1,3.4,0,5.1
			c0,1.4,0.6,1.9,1.9,1.8c1.4,0,2.9,0,4.3,0c1.6,0,3.2,0,4.7,0c1.3,0,1.8-0.6,1.8-1.8C60.9,77.7,60.9,75.9,60.9,74.1z M58.5,79
			c-2.6,0-5.3,0-8.1,0c0-1.4,0-2.8,0-4.3c2.7,0,5.3,0,8.1,0C58.5,76.1,58.5,77.5,58.5,79z"/>
		<path class="st0" d="M95.8,74.2c0-1.3-0.6-1.7-1.8-1.7c-3,0-6.1,0-9.1,0c-1.4,0-1.9,0.6-1.8,1.9c0.1,1.7,0.1,3.4,0,5.1
			c0,1.4,0.6,1.9,1.9,1.8c1.4,0,2.9,0,4.3,0c1.6,0,3.2,0,4.7,0c1.3,0,1.8-0.6,1.8-1.8C95.8,77.7,95.8,75.9,95.8,74.2z M93.4,79
			c-2.6,0-5.3,0-8.1,0c0-1.4,0-2.8,0-4.3c2.7,0,5.3,0,8.1,0C93.4,76.1,93.4,77.5,93.4,79z"/>
		<path class="st0" d="M78.3,61c0-1.3-0.6-1.7-1.8-1.7c-3,0-6.1,0-9.1,0c-1.4,0-1.9,0.6-1.8,1.9c0.1,1.7,0.1,3.4,0,5.1
			c0,1.4,0.6,1.9,1.9,1.8c1.4,0,2.9,0,4.3,0c1.6,0,3.2,0,4.7,0c1.3,0,1.8-0.6,1.8-1.8C78.3,64.6,78.3,62.8,78.3,61z M75.9,65.9
			c-2.6,0-5.3,0-8.1,0c0-1.4,0-2.8,0-4.3c2.7,0,5.3,0,8.1,0C75.9,63,75.9,64.4,75.9,65.9z"/>
		<path class="st0" d="M60.9,61c0-1.3-0.6-1.7-1.8-1.7c-3,0-6.1,0-9.1,0c-1.4,0-1.9,0.6-1.8,1.9c0.1,1.7,0.1,3.4,0,5.1
			c0,1.4,0.6,1.9,1.9,1.8c1.4,0,2.9,0,4.3,0c1.6,0,3.2,0,4.7,0c1.3,0,1.8-0.6,1.8-1.8C60.9,64.6,60.9,62.8,60.9,61z M58.5,65.9
			c-2.6,0-5.3,0-8.1,0c0-1.4,0-2.8,0-4.3c2.7,0,5.3,0,8.1,0C58.5,63,58.5,64.3,58.5,65.9z"/>
		<path class="st0" d="M95.9,61c0-1.3-0.6-1.7-1.8-1.7c-3,0-6.1,0-9.1,0c-1.4,0-1.9,0.6-1.8,1.9c0.1,1.7,0.1,3.4,0,5.1
			c0,1.4,0.6,1.9,1.9,1.8c1.4,0,2.9,0,4.3,0c1.6,0,3.2,0,4.7,0c1.3,0,1.8-0.6,1.8-1.8C95.8,64.6,95.8,62.8,95.9,61z M93.4,65.9
			c-2.6,0-5.3,0-8.1,0c0-1.4,0-2.8,0-4.3c2.7,0,5.3,0,8.1,0C93.4,63,93.4,64.4,93.4,65.9z"/>
		<path class="st0" d="M78.3,87.3c0-1.3-0.6-1.7-1.8-1.7c-3,0-6.1,0-9.1,0c-1.4,0-1.9,0.6-1.8,1.9c0.1,1.7,0.1,3.4,0,5.1
			c0,1.4,0.6,1.9,1.9,1.8c1.4,0,2.9,0,4.3,0c1.6,0,3.2,0,4.7,0c1.3,0,1.8-0.6,1.8-1.8C78.3,90.8,78.3,89.1,78.3,87.3z M75.9,92.2
			c-2.6,0-5.3,0-8.1,0c0-1.4,0-2.8,0-4.3c2.7,0,5.3,0,8.1,0C75.9,89.2,75.9,90.6,75.9,92.2z"/>
		<path class="st0" d="M60.9,87.3c0-1.3-0.6-1.7-1.8-1.7c-3,0-6.1,0-9.1,0c-1.4,0-1.9,0.6-1.8,1.9c0.1,1.7,0.1,3.4,0,5.1
			c0,1.4,0.6,1.9,1.9,1.8c1.4,0,2.9,0,4.3,0c1.6,0,3.2,0,4.7,0c1.3,0,1.8-0.6,1.8-1.8C60.9,90.8,60.9,89,60.9,87.3z M58.5,92.1
			c-2.6,0-5.3,0-8.1,0c0-1.4,0-2.8,0-4.3c2.7,0,5.3,0,8.1,0C58.5,89.2,58.5,90.6,58.5,92.1z"/>
		<path class="st0" d="M95.9,87.3c0-1.3-0.6-1.7-1.8-1.7c-3,0-6.1,0-9.1,0c-1.4,0-1.9,0.6-1.8,1.9c0.1,1.7,0.1,3.4,0,5.1
			c0,1.4,0.6,1.9,1.9,1.8c1.4,0,2.9,0,4.3,0c1.6,0,3.2,0,4.7,0c1.3,0,1.8-0.6,1.8-1.8C95.8,90.8,95.8,89.1,95.9,87.3z M93.4,92.2
			c-2.6,0-5.3,0-8.1,0c0-1.4,0-2.8,0-4.3c2.7,0,5.3,0,8.1,0C93.4,89.2,93.4,90.6,93.4,92.2z"/>
	</g>
	<path class="st0" d="M72,115.1"/>
	<g>
		<path class="st0" d="M51.3,27.4v11.9h-2.8v-4.9h-5.4v4.9h-2.8V27.4h2.8v4.7h5.4v-4.7H51.3z"/>
		<path class="st0" d="M54.5,33.3c0-3.5,2.8-6.2,6.5-6.2c3.7,0,6.5,2.6,6.5,6.2c0,3.6-2.8,6.2-6.5,6.2
			C57.3,39.5,54.5,36.8,54.5,33.3z M64.8,33.3c0-2.3-1.6-3.8-3.7-3.8c-2.1,0-3.7,1.5-3.7,3.8s1.6,3.8,3.7,3.8
			C63.2,37.1,64.8,35.6,64.8,33.3z"/>
		<path class="st0" d="M73.1,29.6h-3.8v-2.2h10.4v2.2h-3.8v9.7h-2.8V29.6z"/>
		<path class="st0" d="M91.5,37.1v2.2h-9.2V27.4h9v2.2h-6.3v2.6h5.5v2.1h-5.5v2.8H91.5z"/>
		<path class="st0" d="M94.9,27.4h2.8V37h6v2.2h-8.7V27.4z"/>
	</g>
</g>
</svg>
