<?xml version="1.0" encoding="utf-8"?>
<!-- Generator: Adobe Illustrator 25.2.1, SVG Export Plug-In . SVG Version: 6.00 Build 0)  -->
<svg version="1.1" id="Layer_1" xmlns="http://www.w3.org/2000/svg" xmlns:xlink="http://www.w3.org/1999/xlink" x="0px" y="0px"
	 viewBox="0 0 144 144" style="enable-background:new 0 0 144 144;" xml:space="preserve">
<style type="text/css">
	.st0{fill:#FFFFFF;}
</style>
<g>
	<path class="st0" d="M110,33.9v50.7H34V33.9H110 M111.3,31.9H32.7c-0.4,0-0.6,0.3-0.6,0.6V86c0,0.4,0.3,0.6,0.6,0.6h78.7
		c0.4,0,0.6-0.3,0.6-0.6V32.5C112,32.2,111.7,31.9,111.3,31.9L111.3,31.9z"/>
	<g>
		<path class="st0" d="M53.9,49.5l2.2,3.9H53l-2-3.5h-2.5l-0.7,3.5h-2.9l2.5-12.6h5.1c3.1,0,4.9,1.4,4.9,3.9
			C57.5,47.1,56.2,48.8,53.9,49.5z M54.6,45c0-1.2-0.9-1.8-2.4-1.8h-2.3L49,47.5h2.5C53.4,47.5,54.6,46.6,54.6,45z"/>
		<path class="st0" d="M58.7,52.2l1.2-2.3c1.2,0.8,2.7,1.3,4.2,1.3c1.6,0,2.6-0.6,2.6-1.5c0-2-6.2-0.9-6.2-5c0-2.6,2.3-4.3,5.8-4.3
			c1.7,0,3.3,0.4,4.4,1.1l-1.1,2.2c-1-0.6-2.2-1-3.4-1c-1.7,0-2.7,0.6-2.7,1.5c0,2.1,6.2,1,6.2,4.9c0,2.6-2.3,4.3-5.8,4.3
			C61.7,53.6,59.8,53,58.7,52.2z"/>
		<path class="st0" d="M86.8,40.8l-8,12.6h-2.9L73,40.8h3l2,9l5.7-9H86.8z"/>
		<path class="st0" d="M99.1,44.7c0,3.2-2.4,5.2-6.1,5.2h-2.8l-0.7,3.5h-2.9L89,40.8h5.1C97.3,40.8,99.1,42.2,99.1,44.7z M96.1,45
			c0-1.2-0.9-1.8-2.3-1.8h-2.3l-0.9,4.4h2.5C95,47.5,96.1,46.6,96.1,45z"/>
	</g>
	<g>
		<path class="st0" d="M61.2,59.4c1,0,1.8,0.8,1.8,1.8v13.9c0,1-0.8,1.8-1.8,1.8H47.2c-1,0-1.8-0.8-1.8-1.8V61.1
			c0-1,0.8-1.8,1.8-1.8H61.2 M61.2,57.4H47.2c-2.1,0-3.8,1.7-3.8,3.8v13.9c0,2.1,1.7,3.8,3.8,3.8h13.9c2.1,0,3.8-1.7,3.8-3.8V61.1
			C64.9,59.1,63.3,57.4,61.2,57.4L61.2,57.4z"/>
		<path class="st0" d="M96.8,59.4c1,0,1.8,0.8,1.8,1.8v13.9c0,1-0.8,1.8-1.8,1.8H82.8c-1,0-1.8-0.8-1.8-1.8V61.1
			c0-1,0.8-1.8,1.8-1.8H96.8 M96.8,57.4H82.8c-2.1,0-3.8,1.7-3.8,3.8v13.9c0,2.1,1.7,3.8,3.8,3.8h13.9c2.1,0,3.8-1.7,3.8-3.8V61.1
			C100.5,59.1,98.8,57.4,96.8,57.4L96.8,57.4z"/>
		<path class="st0" d="M96,61.4c-0.1-0.1-0.3-0.3-0.7-0.3l-0.1,0c-0.4,0.1-0.8,0.3-1.2,0.6c-0.6,0.5-1.3,1.5-2,2.9
			c-0.7,1.5-1.4,2.9-2.1,4.4c-0.5,1-0.9,2-1.4,3c-0.1,0.1-0.1,0.2-0.1,0.2c0,0-0.2-0.1-0.4-0.3c-0.1,0-0.3-0.2-0.7-0.9
			c-0.4-0.6-0.8-1.3-1-1.9c-0.2-0.3-0.4-0.5-0.6-0.5c-0.2-0.1-0.4-0.1-0.8,0.1l-0.1,0.1c-0.1,0.1-0.2,0.2-0.3,0.4l-0.1,0.1
			c-0.1,0.4-0.2,0.6-0.1,1c0.7,1.5,1.6,2.8,2.7,3.8l0,0c0.4,0.4,0.9,0.5,1.5,0.5c0.7,0,1.3-0.5,1.8-1.5c0.8-1.8,1.8-4.1,3.1-6.7
			c0.9-1.8,1.7-3.1,2.5-4.1C96,62.2,96.3,61.8,96,61.4z"/>
	</g>
	<path class="st0" d="M113,27.3H31c-2.1,0-3.8,1.7-3.8,3.8v65.9c0,2.1,1.7,3.8,3.8,3.8h28.8c0,0.1-0.1,0.2-0.1,0.3l-1.4,5.1l0,0
		c-0.2,0.8-0.9,1.3-1.7,1.3h-5.1c-1.1,0-2.1,0.9-2.1,2.1v5.1c0,1.1,0.9,2.1,2.1,2.1h40.8c1.1,0,2.1-0.9,2.1-2.1v-5.1
		c0-1.1-0.9-2.1-2.1-2.1H87c-0.8,0-1.4-0.5-1.6-1.3c0,0,0,0,0,0l-1.4-5.1c0-0.1-0.1-0.2-0.1-0.3H113c2.1,0,3.8-1.7,3.8-3.8V31.1
		C116.8,29,115.1,27.3,113,27.3z M92.3,109.6v5.1c0,0,0,0.1-0.1,0.1H51.4c0,0-0.1,0-0.1-0.1v-5.1c0,0,0-0.1,0.1-0.1h9.3c0,0,0,0,0,0
		h22.1c0,0,0,0,0,0L92.3,109.6C92.2,109.5,92.3,109.5,92.3,109.6z M60.7,107.5c-0.3,0-0.4-0.2-0.5-0.2c-0.1-0.1-0.2-0.3-0.1-0.5
		l1.4-5.1c0.1-0.3,0.3-0.5,0.6-0.5h19.3c0.3,0,0.5,0.2,0.6,0.5l1.4,5.1c0.1,0.3,0,0.4-0.1,0.5c-0.1,0.1-0.2,0.2-0.5,0.2H60.7z
		 M31,29.3h82c1,0,1.8,0.8,1.8,1.8v59.2H29.2V31.1C29.2,30.1,30,29.3,31,29.3z M113,98.7H31c-1,0-1.8-0.8-1.8-1.8v-4.7h85.6v4.7
		C114.8,97.9,114,98.7,113,98.7z"/>
</g>
</svg>
